%YAML 1.1
%TAG !u! tag:unity3d.com,2011:
--- !u!114 &11400000
MonoBehaviour:
  m_ObjectHideFlags: 0
  m_CorrespondingSourceObject: {fileID: 0}
  m_PrefabInstance: {fileID: 0}
  m_PrefabAsset: {fileID: 0}
  m_GameObject: {fileID: 0}
  m_Enabled: 1
  m_EditorHideFlags: 0
  m_Script: {fileID: 11500000, guid: e629e74545eec7e41aea128c3e26becc, type: 3}
  m_Name: IbrahimYagizBeyazit
  m_EditorClassIdentifier: 
  characterSprite: {fileID: 21300000, guid: 2ca88a89899d81c4d87d0a2aa225770d, type: 3}
  damage: 20
  health: 90
  rebound: 300
  jumpForce: 350
  attackCoolDown: 2
  moveSpeed: 10
