%YAML 1.1
%TAG !u! tag:unity3d.com,2011:
--- !u!114 &11400000
MonoBehaviour:
  m_ObjectHideFlags: 0
  m_CorrespondingSourceObject: {fileID: 0}
  m_PrefabInstance: {fileID: 0}
  m_PrefabAsset: {fileID: 0}
  m_GameObject: {fileID: 0}
  m_Enabled: 1
  m_EditorHideFlags: 0
  m_Script: {fileID: 11500000, guid: e629e74545eec7e41aea128c3e26becc, type: 3}
  m_Name: TolgaCelik
  m_EditorClassIdentifier: 
  characterSprite: {fileID: 21300000, guid: af16cb225967af543b9c764da4690c2e, type: 3}
  damage: 25
  health: 100
  rebound: 200
  jumpForce: 500
  attackCoolDown: 0.5
  moveSpeed: 10
