{
    "name": "QA FIGHT",
    "maps": [
        {
            "name": "Player",
            "id": "f41e74de-4d26-4298-87cf-a698a8549134",
            "actions": [
                {
                    "name": "MoveLeft",
                    "type": "PassThrough",
                    "id": "f9041658-9fab-4078-bb94-08410068a1a3",
                    "expectedControlType": "Button",
                    "processors": "",
                    "interactions": ""
                },
                {
                    "name": "MoveRight",
                    "type": "PassThrough",
                    "id": "c248ce67-5a5d-4530-9162-a8afa93545ca",
                    "expectedControlType": "Button",
                    "processors": "",
                    "interactions": ""
                },
                {
                    "name": "Jump",
                    "type": "Button",
                    "id": "3098d17f-0db8-4623-a43f-cc85214653d5",
                    "expectedControlType": "Button",
                    "processors": "",
                    "interactions": ""
                },
                {
                    "name": "Navigate",
                    "type": "Value",
                    "id": "0d3d1f00-a3cb-4f56-9c76-9b909b2942ae",
                    "expectedControlType": "Vector2",
                    "processors": "",
                    "interactions": ""
                },
                {
                    "name": "Submit",
                    "type": "PassThrough",
                    "id": "44b9050d-3a6c-4b62-9cb7-e3a2da32e82f",
                    "expectedControlType": "Button",
                    "processors": "",
                    "interactions": ""
                },
                {
                    "name": "Kick",
                    "type": "PassThrough",
                    "id": "3c8880bf-4a2a-4ef3-9a8f-5909794d0dce",
                    "expectedControlType": "Button",
                    "processors": "",
                    "interactions": ""
                },
                {
                    "name": "Fist",
                    "type": "Button",
                    "id": "719af35e-c6a5-48f4-a183-73e83f95bc52",
                    "expectedControlType": "Button",
                    "processors": "",
                    "interactions": ""
                }
            ],
            "bindings": [
                {
                    "name": "",
                    "id": "2168cca8-63a4-47c4-a193-d7a4bc9c56ec",
                    "path": "<Keyboard>/t",
                    "interactions": "",
                    "processors": "",
                    "groups": "Keyboard&Mouse",
                    "action": "MoveLeft",
                    "isComposite": false,
                    "isPartOfComposite": false
                },
                {
                    "name": "",
                    "id": "e410dc17-5ab1-497a-95b4-f9d3d270aae6",
                    "path": "<Keyboard>/r",
                    "interactions": "",
                    "processors": "",
                    "groups": "Keyboard&Mouse",
                    "action": "MoveRight",
                    "isComposite": false,
                    "isPartOfComposite": false
                },
                {
                    "name": "",
                    "id": "47051f01-2803-48cc-8ddc-4062b9b5e2cf",
                    "path": "<Keyboard>/w",
                    "interactions": "",
                    "processors": "",
                    "groups": "Keyboard&Mouse",
                    "action": "Jump",
                    "isComposite": false,
                    "isPartOfComposite": false
                },
                {
                    "name": "Gamepad",
                    "id": "d4bbd9cb-8cf7-45fe-9f9b-0d8314c64d99",
                    "path": "2DVector",
                    "interactions": "",
                    "processors": "",
                    "groups": "",
                    "action": "Navigate",
                    "isComposite": true,
                    "isPartOfComposite": false
                },
                {
                    "name": "up",
                    "id": "af264652-a550-4e30-9825-ec1f66313080",
                    "path": "<Gamepad>/leftStick/up",
                    "interactions": "",
                    "processors": "",
                    "groups": ";Gamepad",
                    "action": "Navigate",
                    "isComposite": false,
                    "isPartOfComposite": true
                },
                {
                    "name": "up",
                    "id": "4f8ed597-7800-418b-b20d-bc82286826f0",
                    "path": "<Gamepad>/rightStick/up",
                    "interactions": "",
                    "processors": "",
                    "groups": ";Gamepad",
                    "action": "Navigate",
                    "isComposite": false,
                    "isPartOfComposite": true
                },
                {
                    "name": "down",
                    "id": "48e3aa67-6a02-4584-b0a9-43134cda5ec3",
                    "path": "<Gamepad>/leftStick/down",
                    "interactions": "",
                    "processors": "",
                    "groups": ";Gamepad",
                    "action": "Navigate",
                    "isComposite": false,
                    "isPartOfComposite": true
                },
                {
                    "name": "down",
                    "id": "efbb7ae1-26bf-4c6b-96e0-e6c21a6da421",
                    "path": "<Gamepad>/rightStick/down",
                    "interactions": "",
                    "processors": "",
                    "groups": ";Gamepad",
                    "action": "Navigate",
                    "isComposite": false,
                    "isPartOfComposite": true
                },
                {
                    "name": "left",
                    "id": "7c8a18ff-4c82-401d-9866-1e9d75537247",
                    "path": "<Gamepad>/leftStick/left",
                    "interactions": "",
                    "processors": "",
                    "groups": ";Gamepad",
                    "action": "Navigate",
                    "isComposite": false,
                    "isPartOfComposite": true
                },
                {
                    "name": "left",
                    "id": "ddcb1488-a5f2-47ab-894d-4e3dd3aad666",
                    "path": "<Gamepad>/rightStick/left",
                    "interactions": "",
                    "processors": "",
                    "groups": ";Gamepad",
                    "action": "Navigate",
                    "isComposite": false,
                    "isPartOfComposite": true
                },
                {
                    "name": "right",
                    "id": "df2dab97-fc4d-4206-bd28-4dea9f32e62b",
                    "path": "<Gamepad>/leftStick/right",
                    "interactions": "",
                    "processors": "",
                    "groups": ";Gamepad",
                    "action": "Navigate",
                    "isComposite": false,
                    "isPartOfComposite": true
                },
                {
                    "name": "right",
                    "id": "3559f5dd-8a1e-438f-9870-5ebce2dc4ae8",
                    "path": "<Gamepad>/rightStick/right",
                    "interactions": "",
                    "processors": "",
                    "groups": ";Gamepad",
                    "action": "Navigate",
                    "isComposite": false,
                    "isPartOfComposite": true
                },
                {
                    "name": "",
                    "id": "19849cd5-0170-4e8c-ab46-0a60f5d50c7e",
                    "path": "<Gamepad>/dpad",
                    "interactions": "",
                    "processors": "",
                    "groups": ";Gamepad",
                    "action": "Navigate",
                    "isComposite": false,
                    "isPartOfComposite": false
                },
                {
                    "name": "Joystick",
                    "id": "f27f322c-7b95-4d71-8979-69e5aac15631",
                    "path": "2DVector",
                    "interactions": "",
                    "processors": "",
                    "groups": "",
                    "action": "Navigate",
                    "isComposite": true,
                    "isPartOfComposite": false
                },
                {
                    "name": "up",
                    "id": "6b1a0433-626c-4762-b1fd-53eb44c03e1d",
                    "path": "<Joystick>/stick/up",
                    "interactions": "",
                    "processors": "",
                    "groups": "Joystick",
                    "action": "Navigate",
                    "isComposite": false,
                    "isPartOfComposite": true
                },
                {
                    "name": "down",
                    "id": "3cc0fc53-eec6-483f-9402-49b9bd49641a",
                    "path": "<Joystick>/stick/down",
                    "interactions": "",
                    "processors": "",
                    "groups": "Joystick",
                    "action": "Navigate",
                    "isComposite": false,
                    "isPartOfComposite": true
                },
                {
                    "name": "left",
                    "id": "4cff9102-e569-4423-8b83-8ead0270518f",
                    "path": "<Joystick>/stick/left",
                    "interactions": "",
                    "processors": "",
                    "groups": "Joystick",
                    "action": "Navigate",
                    "isComposite": false,
                    "isPartOfComposite": true
                },
                {
                    "name": "right",
                    "id": "20935ad6-7ba2-4a2e-b471-74e64b96adcc",
                    "path": "<Joystick>/stick/right",
                    "interactions": "",
                    "processors": "",
                    "groups": "Joystick",
                    "action": "Navigate",
                    "isComposite": false,
                    "isPartOfComposite": true
                },
                {
                    "name": "Keyboard",
                    "id": "e36a3d4d-ad40-43dc-ae43-dc5d6a14b4da",
                    "path": "2DVector",
                    "interactions": "",
                    "processors": "",
                    "groups": "",
                    "action": "Navigate",
                    "isComposite": true,
                    "isPartOfComposite": false
                },
                {
                    "name": "up",
                    "id": "bf5fcb67-95d6-4093-b71d-e92293a50165",
                    "path": "<Keyboard>/w",
                    "interactions": "",
                    "processors": "",
                    "groups": "Keyboard&Mouse",
                    "action": "Navigate",
                    "isComposite": false,
                    "isPartOfComposite": true
                },
                {
                    "name": "up",
                    "id": "1998a6d8-0a15-43c1-8d9c-c1380af17071",
                    "path": "<Keyboard>/upArrow",
                    "interactions": "",
                    "processors": "",
                    "groups": "Keyboard&Mouse",
                    "action": "Navigate",
                    "isComposite": false,
                    "isPartOfComposite": true
                },
                {
                    "name": "down",
                    "id": "b37dba86-86ac-480d-8b0a-6aa5bdb9ca72",
                    "path": "<Keyboard>/s",
                    "interactions": "",
                    "processors": "",
                    "groups": "Keyboard&Mouse",
                    "action": "Navigate",
                    "isComposite": false,
                    "isPartOfComposite": true
                },
                {
                    "name": "down",
                    "id": "3c33f0cf-a93c-4022-ab52-2fd84fa88ced",
                    "path": "<Keyboard>/downArrow",
                    "interactions": "",
                    "processors": "",
                    "groups": "Keyboard&Mouse",
                    "action": "Navigate",
                    "isComposite": false,
                    "isPartOfComposite": true
                },
                {
                    "name": "left",
                    "id": "38caeb82-851d-4a22-a006-2a8d31975ddb",
                    "path": "<Keyboard>/a",
                    "interactions": "",
                    "processors": "",
                    "groups": "Keyboard&Mouse",
                    "action": "Navigate",
                    "isComposite": false,
                    "isPartOfComposite": true
                },
                {
                    "name": "left",
                    "id": "471d8ff9-c8c0-4da8-8e34-745bf48482df",
                    "path": "<Keyboard>/leftArrow",
                    "interactions": "",
                    "processors": "",
                    "groups": "Keyboard&Mouse",
                    "action": "Navigate",
                    "isComposite": false,
                    "isPartOfComposite": true
                },
                {
                    "name": "right",
                    "id": "d672b4d0-1606-4ace-aae8-47655314e435",
                    "path": "<Keyboard>/d",
                    "interactions": "",
                    "processors": "",
                    "groups": "Keyboard&Mouse",
                    "action": "Navigate",
                    "isComposite": false,
                    "isPartOfComposite": true
                },
                {
                    "name": "right",
                    "id": "266aa574-8ab9-44c3-aac4-19ecbf0f6447",
                    "path": "<Keyboard>/rightArrow",
                    "interactions": "",
                    "processors": "",
                    "groups": "Keyboard&Mouse",
                    "action": "Navigate",
                    "isComposite": false,
                    "isPartOfComposite": true
                },
                {
                    "name": "",
                    "id": "8742d441-cb5d-49fd-bae9-4f9292c8d96d",
                    "path": "<Keyboard>/space",
                    "interactions": "",
                    "processors": "",
                    "groups": "Keyboard&Mouse",
                    "action": "Submit",
                    "isComposite": false,
                    "isPartOfComposite": false
                },
                {
                    "name": "",
                    "id": "8a98dada-b4cf-414d-b915-f2ddf019f57b",
                    "path": "<Gamepad>/start",
                    "interactions": "",
                    "processors": "",
                    "groups": "Gamepad",
                    "action": "Submit",
                    "isComposite": false,
                    "isPartOfComposite": false
                },
                {
                    "name": "",
                    "id": "ad2ee7b8-f586-4be3-9048-9416dcee5630",
                    "path": "<Keyboard>/r",
                    "interactions": "Press",
                    "processors": "",
                    "groups": "Keyboard&Mouse",
                    "action": "Kick",
                    "isComposite": false,
                    "isPartOfComposite": false
                },
                {
                    "name": "",
                    "id": "860cb2bd-a0cf-4452-b940-b5fad9694c05",
                    "path": "<Keyboard>/t",
                    "interactions": "Press",
                    "processors": "",
                    "groups": "Keyboard&Mouse",
                    "action": "Fist",
                    "isComposite": false,
                    "isPartOfComposite": false
                }
            ]
        },
        {
            "name": "UI",
            "id": "66b59aac-fe01-4331-a4db-fc9a0d4d13c3",
            "actions": [
                {
                    "name": "MoveLeft",
                    "type": "PassThrough",
                    "id": "8cafd1ec-bfe5-4bb1-aebe-630ff00a639e",
                    "expectedControlType": "Axis",
                    "processors": "",
                    "interactions": ""
                },
                {
                    "name": "MoveRight",
                    "type": "PassThrough",
                    "id": "cbefe3e9-7f8d-4780-aa5d-cf7d1ce91d1a",
                    "expectedControlType": "Button",
                    "processors": "",
                    "interactions": ""
                },
                {
                    "name": "Jump",
                    "type": "Button",
                    "id": "1950c9aa-3ec9-4427-8938-54d7d0c9c0b1",
                    "expectedControlType": "Button",
                    "processors": "",
                    "interactions": ""
                },
                {
                    "name": "Kick",
                    "type": "PassThrough",
                    "id": "57d41d93-ddf0-4040-83a6-5f7e471b6481",
                    "expectedControlType": "Button",
                    "processors": "",
                    "interactions": ""
                },
                {
                    "name": "Fist",
                    "type": "Button",
                    "id": "561a79c2-2928-474e-9a07-2ec3f8c7a465",
                    "expectedControlType": "Button",
                    "processors": "",
                    "interactions": ""
                }
            ],
            "bindings": [
                {
                    "name": "",
                    "id": "53b5025f-c806-4ff6-90b5-951456b8bd33",
                    "path": "<Gamepad>/dpad/left",
                    "interactions": "Press(behavior=2)",
                    "processors": "",
                    "groups": "Gamepad",
                    "action": "MoveLeft",
                    "isComposite": false,
                    "isPartOfComposite": false
                },
                {
                    "name": "",
                    "id": "54669e00-cd69-4d0a-9800-e11da1c6f723",
                    "path": "<Keyboard>/a",
                    "interactions": "Press(behavior=2)",
                    "processors": "",
                    "groups": "Keyboard&Mouse",
                    "action": "MoveLeft",
                    "isComposite": false,
                    "isPartOfComposite": false
                },
                {
                    "name": "",
                    "id": "7a29a1bc-ab52-452d-9103-29e23f853f9c",
                    "path": "<Keyboard>/d",
                    "interactions": "Press(behavior=2)",
                    "processors": "",
                    "groups": "Keyboard&Mouse",
                    "action": "MoveRight",
                    "isComposite": false,
                    "isPartOfComposite": false
                },
                {
                    "name": "",
                    "id": "07b222f2-865c-4d85-8733-8e3b013d28f3",
                    "path": "<Gamepad>/dpad/right",
                    "interactions": "Press(behavior=1)",
                    "processors": "",
                    "groups": "Gamepad",
                    "action": "MoveRight",
                    "isComposite": false,
                    "isPartOfComposite": false
                },
                {
                    "name": "",
                    "id": "d538efb7-22ae-42af-a25a-1ab39f4b6318",
                    "path": "<Keyboard>/w",
                    "interactions": "Press",
                    "processors": "",
                    "groups": "Keyboard&Mouse",
                    "action": "Jump",
                    "isComposite": false,
                    "isPartOfComposite": false
                },
                {
                    "name": "",
                    "id": "14a7f130-30e3-4696-9b60-0323a0e5b017",
                    "path": "<Gamepad>/dpad/up",
                    "interactions": "Press",
                    "processors": "",
                    "groups": "Gamepad",
                    "action": "Jump",
                    "isComposite": false,
                    "isPartOfComposite": false
                },
                {
                    "name": "",
                    "id": "96566007-bf15-459a-bbca-7003b5a9884b",
                    "path": "<Keyboard>/r",
                    "interactions": "Press",
                    "processors": "",
                    "groups": "Keyboard&Mouse",
                    "action": "Kick",
                    "isComposite": false,
                    "isPartOfComposite": false
                },
                {
                    "name": "",
                    "id": "b8282427-b6f3-4786-b009-822317547575",
                    "path": "<Gamepad>/buttonEast",
                    "interactions": "Press",
                    "processors": "",
                    "groups": "Gamepad",
                    "action": "Kick",
                    "isComposite": false,
                    "isPartOfComposite": false
                },
                {
                    "name": "",
                    "id": "a2075ba1-b659-4ec2-b61b-c2dabe62774b",
                    "path": "<Keyboard>/t",
                    "interactions": "Press",
                    "processors": "",
                    "groups": "Keyboard&Mouse",
                    "action": "Fist",
                    "isComposite": false,
                    "isPartOfComposite": false
                },
                {
                    "name": "",
                    "id": "d73e9e56-a7ac-4509-bcee-1ecca9f137dc",
                    "path": "<Gamepad>/buttonWest",
                    "interactions": "Press",
                    "processors": "",
                    "groups": "Gamepad",
                    "action": "Fist",
                    "isComposite": false,
                    "isPartOfComposite": false
                }
            ]
        }
    ],
    "controlSchemes": [
        {
            "name": "Keyboard&Mouse",
            "bindingGroup": "Keyboard&Mouse",
            "devices": [
                {
                    "devicePath": "<Keyboard>",
                    "isOptional": false,
                    "isOR": false
                },
                {
                    "devicePath": "<Mouse>",
                    "isOptional": false,
                    "isOR": false
                }
            ]
        },
        {
            "name": "Gamepad",
            "bindingGroup": "Gamepad",
            "devices": [
                {
                    "devicePath": "<Gamepad>",
                    "isOptional": false,
                    "isOR": false
                }
            ]
        },
        {
            "name": "Touch",
            "bindingGroup": "Touch",
            "devices": [
                {
                    "devicePath": "<Touchscreen>",
                    "isOptional": false,
                    "isOR": false
                }
            ]
        },
        {
            "name": "Joystick",
            "bindingGroup": "Joystick",
            "devices": [
                {
                    "devicePath": "<Joystick>",
                    "isOptional": false,
                    "isOR": false
                }
            ]
        },
        {
            "name": "XR",
            "bindingGroup": "XR",
            "devices": [
                {
                    "devicePath": "<XRController>",
                    "isOptional": false,
                    "isOR": false
                }
            ]
        }
    ]
}